<svg xmlns="http://www.w3.org/2000/svg" width="83.29" height="207.25" viewBox="0 0 83.29 207.25">
  <g id="Сгруппировать_664" data-name="Сгруппировать 664" transform="translate(-181.047 -262.124)">
    <path id="Контур_1335" data-name="Контур 1335" d="M199.818,292.243V314.3c0,3.215.109,6.048,4.085,6.048s4.087-2.832,4.087-6.048V292.96c-.541.029-1.085.049-1.635.049A27.68,27.68,0,0,1,199.818,292.243Z" transform="translate(35.262 56.579)" fill="none"/>
    <path id="Контур_1336" data-name="Контур 1336" d="M207.1,298.387c4.522,0,7.683-3.212,7.683-7.9,0-4.358-2.942-8.011-7.683-8.011s-7.683,3.653-7.683,8.011C199.42,295.174,202.581,298.387,207.1,298.387Z" transform="translate(34.514 38.233)" fill="none"/>
    <path id="Контур_1337" data-name="Контур 1337" d="M186.328,302.493c0,4.686,3.161,7.9,7.683,7.9s7.68-3.215,7.68-7.9c0-4.358-2.939-8.008-7.68-8.008S186.328,298.135,186.328,302.493Z" transform="translate(9.92 60.791)" fill="none"/>
    <path id="Контур_1338" data-name="Контур 1338" d="M200.432,298.722h11.963a20.064,20.064,0,0,1-11.566-10.366,21.641,21.641,0,0,1-9.142,5.282A22.109,22.109,0,0,1,200.432,298.722Z" transform="translate(19.987 49.277)" fill="none"/>
    <path id="Контур_1339" data-name="Контур 1339" d="M200.859,310.371h-.927v15.91h.927c4.957,0,8.771-2.288,8.771-7.683C209.63,312.823,206.3,310.371,200.859,310.371Z" transform="translate(35.476 90.633)" fill="none"/>
    <path id="Контур_1340" data-name="Контур 1340" d="M186.328,288.546c0,4.686,3.161,7.9,7.683,7.9s7.68-3.215,7.68-7.9c0-4.358-2.939-8.008-7.68-8.008S186.328,284.188,186.328,288.546Z" transform="translate(9.92 34.591)" fill="none"/>
    <path id="Контур_1341" data-name="Контур 1341" d="M200.883,302.315a21.7,21.7,0,0,1-9.243,5.285,23.532,23.532,0,0,1,9.243,5.046h8.987A14.313,14.313,0,0,1,200.883,302.315Z" transform="translate(19.899 75.499)" fill="none"/>
    <path id="Контур_1342" data-name="Контур 1342" d="M200.22,311.693a6.254,6.254,0,0,0-5.668-3.161c-5.337,0-8.281,4.577-8.281,9.534,0,4.522,2.833,8.774,7.683,8.774,2.343,0,5.34-1.091,6.048-3.6h-6.756v-9.7h17.418v-5.688Z" transform="translate(9.813 85.908)" fill="none"/>
    <path id="Контур_1343" data-name="Контур 1343" d="M195.766,284.218V271.437h-9.154v13.584a26.261,26.261,0,0,1,6.865-.9Q194.634,284.122,195.766,284.218Z" transform="translate(10.454 17.495)" fill="none"/>
    <path id="Контур_1344" data-name="Контур 1344" d="M208.856,286.157V273.376H199.7V286.96a26.239,26.239,0,0,1,6.862-.9Q207.724,286.062,208.856,286.157Z" transform="translate(35.049 21.137)" fill="none"/>
    <path id="Контур_1345" data-name="Контур 1345" d="M199.555,276.4h-7.429a21.858,21.858,0,0,1,7.429,4.6Z" transform="translate(20.812 26.81)" fill="none"/>
    <path id="Контур_1346" data-name="Контур 1346" d="M206.316,278.335H195.044a19.735,19.735,0,0,1,3.374,5.055A21.736,21.736,0,0,1,206.316,278.335Z" transform="translate(26.294 30.453)" fill="none"/>
    <path id="Контур_1347" data-name="Контур 1347" d="M244.861,389.216c8.221-1.615,13.322-7.047,13.322-16.917V348h-7.329c7.939-2.925,13.483-9.77,13.483-19.5a20.475,20.475,0,0,0-13.71-19.715h7.663V267.705H243.905v13.84h-9.151v-13.84H220.6v-5.581H206.22v13.84h-9.154v-13.84H182.682v41.082h12.239a20.472,20.472,0,0,0-13.71,19.715c0,10.325,6.246,17.406,14.974,19.994-8.7,2.714-14.974,10.049-14.974,20.152,0,10.245,6.154,17.3,14.778,19.934-8.857,2.622-14.937,9.844-14.942,20.363v.026c.009,13.178,10.138,20.907,22.665,20.907a24.291,24.291,0,0,0,16.764-6.615v10.61h-.066V441.64l8.227-.38v28.114h14.931V441.26l8.227.38V428.292h-5.547c8.313-2.4,13.785-9.28,13.785-19.007C260.033,397.78,253.888,391.536,244.861,389.216Zm.245,20.014c0,5.394-3.814,7.683-8.771,7.683h-.927V401h.927C241.781,401,245.105,403.456,245.105,409.23Zm-24.323-21.085a23.532,23.532,0,0,0-9.243-5.046,21.7,21.7,0,0,0,9.243-5.285,14.313,14.313,0,0,0,8.987,10.331Zm-9.171-65.008c0,4.686-3.158,7.9-7.68,7.9s-7.683-3.215-7.683-7.9c0-4.358,2.942-8.008,7.683-8.008S211.611,318.779,211.611,323.137Zm9.206,14.5A20.064,20.064,0,0,0,232.382,348H220.419a22.109,22.109,0,0,0-8.745-5.083A21.641,21.641,0,0,0,220.817,337.633Zm20.8-16.923c4.741,0,7.683,3.653,7.683,8.011,0,4.686-3.161,7.9-7.683,7.9s-7.683-3.212-7.683-7.9C233.934,324.363,236.879,320.71,241.617,320.71Zm-30.006,42.573c0,4.686-3.158,7.9-7.68,7.9s-7.683-3.215-7.683-7.9c0-4.358,2.942-8.008,7.683-8.008S211.611,358.925,211.611,363.284Zm31.641,7.6c0,3.215-.109,6.048-4.087,6.048s-4.085-2.832-4.085-6.048V348.822a27.68,27.68,0,0,0,6.537.766c.55,0,1.094-.02,1.635-.049Zm-8.5-76.37h9.151v12.781q-1.131-.1-2.288-.1a26.239,26.239,0,0,0-6.862.9Zm-2.144,14.275a21.736,21.736,0,0,0-7.9,5.055,19.735,19.735,0,0,0-3.374-5.055Zm-12.242-5.581v4.6a21.858,21.858,0,0,0-7.429-4.6Zm-23.3-14.275h9.154v12.781q-1.131-.1-2.288-.1a26.261,26.261,0,0,0-6.865.9Zm5.993,110.52v9.7h6.756c-.708,2.507-3.7,3.6-6.048,3.6-4.85,0-7.683-4.252-7.683-8.774,0-4.957,2.945-9.534,8.281-9.534a6.254,6.254,0,0,1,5.668,3.161l10.443-3.837v5.688Z" transform="translate(0 0)"/>
  </g>
</svg>
